{
  "installed": {
    "client_id": "1045190581044-gtf96as97l5di1ub2g3u8l30s3e7athp.apps.googleusercontent.com",
    "project_id": "oval-airship-130621",
    "auth_uri": "https://accounts.google.com/o/oauth2/auth",
    "token_uri": "https://accounts.google.com/o/oauth2/token",
    "auth_provider_x509_cert_url": "https://www.googleapis.com/oauth2/v1/certs",
    "client_secret": "dEcGSPQw1ThtTzWLRCWD5GED",
    "redirect_uris": [
      "urn:ietf:wg:oauth:2.0:oob",
      "http://localhost:8000/google/calendar-allowed"
    ]
  }
}